EESchema Schematic File Version 4
EELAYER 30 0
EELAYER END
$Descr A4 11693 8268
encoding utf-8
Sheet 1 1
Title ""
Date ""
Rev ""
Comp ""
Comment1 ""
Comment2 ""
Comment3 ""
Comment4 ""
$EndDescr
$Comp
L mdDocument:FIDUCIAL-DOT FIDUCIAL1
U 1 1 5D6EFC41
P 5350 6900
F 0 "FIDUCIAL1" V 5175 6850 45  0000 L CNN
F 1 "FIDUCIAL-DOT" V 5250 6850 45  0000 L CNN
F 2 "mdDocument:FIDUCIAL-DOT" H 5380 7050 20  0001 C CNN
F 3 "" H 5350 6900 50  0001 C CNN
	1    5350 6900
	1    0    0    -1  
$EndComp
$Comp
L mdDocument:FIDUCIAL-DOT FIDUCIAL2
U 1 1 5D6F22F8
P 5650 6900
F 0 "FIDUCIAL2" V 5475 6850 45  0000 L CNN
F 1 "FIDUCIAL-DOT" V 5550 6850 45  0000 L CNN
F 2 "mdDocument:FIDUCIAL-DOT" H 5680 7050 20  0001 C CNN
F 3 "" H 5650 6900 50  0001 C CNN
	1    5650 6900
	1    0    0    -1  
$EndComp
$Comp
L mdDocument:FIDUCIAL-DOT FIDUCIAL3
U 1 1 5D6F28F8
P 5950 6900
F 0 "FIDUCIAL3" V 5775 6850 45  0000 L CNN
F 1 "FIDUCIAL-DOT" V 5850 6850 45  0000 L CNN
F 2 "mdDocument:FIDUCIAL-DOT" H 5980 7050 20  0001 C CNN
F 3 "" H 5950 6900 50  0001 C CNN
	1    5950 6900
	1    0    0    -1  
$EndComp
$Comp
L mdDocument:FIDUCIAL-DOT FIDUCIAL4
U 1 1 5D6F300B
P 6250 6900
F 0 "FIDUCIAL4" V 6075 6850 45  0000 L CNN
F 1 "FIDUCIAL-DOT" V 6150 6850 45  0000 L CNN
F 2 "mdDocument:FIDUCIAL-DOT" H 6280 7050 20  0001 C CNN
F 3 "" H 6250 6900 50  0001 C CNN
	1    6250 6900
	1    0    0    -1  
$EndComp
$Comp
L mdDocument:FIDUCIAL-DOT FIDUCIAL5
U 1 1 5D6F53CA
P 5350 7550
F 0 "FIDUCIAL5" V 5175 7500 45  0000 L CNN
F 1 "FIDUCIAL-DOT" V 5250 7500 45  0000 L CNN
F 2 "mdDocument:FIDUCIAL-DOT" H 5380 7700 20  0001 C CNN
F 3 "" H 5350 7550 50  0001 C CNN
	1    5350 7550
	1    0    0    -1  
$EndComp
$Comp
L mdDocument:FIDUCIAL-DOT FIDUCIAL6
U 1 1 5D6F61AE
P 5650 7550
F 0 "FIDUCIAL6" V 5475 7500 45  0000 L CNN
F 1 "FIDUCIAL-DOT" V 5550 7500 45  0000 L CNN
F 2 "mdDocument:FIDUCIAL-DOT" H 5680 7700 20  0001 C CNN
F 3 "" H 5650 7550 50  0001 C CNN
	1    5650 7550
	1    0    0    -1  
$EndComp
$Comp
L mdDocument:FIDUCIAL-DOT FIDUCIAL7
U 1 1 5D6F68C6
P 5950 7550
F 0 "FIDUCIAL7" V 5775 7500 45  0000 L CNN
F 1 "FIDUCIAL-DOT" V 5850 7500 45  0000 L CNN
F 2 "mdDocument:FIDUCIAL-DOT" H 5980 7700 20  0001 C CNN
F 3 "" H 5950 7550 50  0001 C CNN
	1    5950 7550
	1    0    0    -1  
$EndComp
$Comp
L mdDocument:FIDUCIAL-DOT FIDUCIAL8
U 1 1 5D6F7083
P 6250 7550
F 0 "FIDUCIAL8" V 6075 7500 45  0000 L CNN
F 1 "FIDUCIAL-DOT" V 6150 7500 45  0000 L CNN
F 2 "mdDocument:FIDUCIAL-DOT" H 6280 7700 20  0001 C CNN
F 3 "" H 6250 7550 50  0001 C CNN
	1    6250 7550
	1    0    0    -1  
$EndComp
$Comp
L mdConnector:CON-COAX J2
U 1 1 5FFCB3A5
P 4350 6450
F 0 "J2" H 4450 6425 50  0000 L CNN
F 1 "U.FL" H 4450 6334 50  0000 L CNN
F 2 "mdU.FL:U.FL-R-SMT-1" H 4380 6600 20  0001 C CNN
F 3 "" H 4350 6450 20  0001 C CNN
	1    4350 6450
	1    0    0    -1  
$EndComp
Wire Wire Line
	3900 6650 4150 6650
Wire Wire Line
	4150 6650 4150 6750
Connection ~ 4150 6650
Wire Wire Line
	4150 6650 4350 6650
$Comp
L mdSupply:GND #PWR01
U 1 1 5FFCE4D9
P 4150 6850
F 0 "#PWR01" H 4150 6850 50  0001 C BNN
F 1 "GND" H 4150 6776 50  0000 C CNN
F 2 "" H 4150 6850 50  0001 C CNN
F 3 "" H 4150 6850 50  0001 C CNN
	1    4150 6850
	1    0    0    -1  
$EndComp
$Comp
L riske-symbols:Ipex-MHF4 J1
U 1 1 6005C246
P 3800 6550
F 0 "J1" H 3830 6857 50  0000 C CNN
F 1 "Ipex-MHF4" H 3830 6766 50  0000 C CNN
F 2 "IPEX_20449-001E-03" H 3800 6550 50  0001 L BNN
F 3 "" H 3800 6550 50  0001 L BNN
F 4 "Manufacturer Recomendations" H 3800 6550 50  0001 L BNN "STANDART"
F 5 "I-PEX" H 3800 6550 50  0001 L BNN "MF"
F 6 "5" H 3800 6550 50  0001 L BNN "PARTREV"
	1    3800 6550
	-1   0    0    -1  
$EndComp
Wire Wire Line
	3900 6450 4250 6450
$EndSCHEMATC
